1ano/2semestre/lsd/pratica02/Mux4_1Demo/simulation/qsim/Mux4_1Demo.msim.vcd
$comment
	File created using the following command:
		vcd file Mux4_1Demo.msim.vcd -direction
$end
$date
	Tue Mar  7 22:35:05 2023
$end
$version
	ModelSim Version 2020.1
$end
$timescale
	1ps
$end

$scope module mux4_1_vhd_vec_tst $end
$var wire 1 ! dataIn0 $end
$var wire 1 " dataIn1 $end
$var wire 1 # dataIn2 $end
$var wire 1 $ dataIn3 $end
$var wire 1 % dataOut $end
$var wire 1 & sel [1] $end
$var wire 1 ' sel [0] $end

$scope module i1 $end
$var wire 1 ( gnd $end
$var wire 1 ) vcc $end
$var wire 1 * unknown $end
$var wire 1 + devoe $end
$var wire 1 , devclrn $end
$var wire 1 - devpor $end
$var wire 1 . ww_devoe $end
$var wire 1 / ww_devclrn $end
$var wire 1 0 ww_devpor $end
$var wire 1 1 ww_dataIn0 $end
$var wire 1 2 ww_dataIn1 $end
$var wire 1 3 ww_dataIn2 $end
$var wire 1 4 ww_dataIn3 $end
$var wire 1 5 ww_sel [1] $end
$var wire 1 6 ww_sel [0] $end
$var wire 1 7 ww_dataOut $end
$var wire 1 8 \dataOut~output_o\ $end
$var wire 1 9 \dataIn2~input_o\ $end
$var wire 1 : \sel[1]~input_o\ $end
$var wire 1 ; \dataIn1~input_o\ $end
$var wire 1 < \sel[0]~input_o\ $end
$var wire 1 = \dataIn0~input_o\ $end
$var wire 1 > \dataOut~0_combout\ $end
$var wire 1 ? \dataIn3~input_o\ $end
$var wire 1 @ \dataOut~1_combout\ $end
$upscope $end
$upscope $end
$enddefinitions $end
#0
$dumpvars
0!
0"
0#
0$
0%
0(
1)
x*
1+
1,
1-
1.
1/
10
01
02
03
04
07
08
09
0:
0;
0<
0=
0>
0?
0@
0&
0'
05
06
$end
#12500
1!
11
1=
1>
1@
18
17
1%
#25000
0!
1"
01
12
1;
0=
0>
0@
08
07
0%
#37500
1!
11
1=
1>
1@
18
17
1%
#50000
0!
0"
1#
01
02
13
19
0;
0=
0>
0@
08
07
0%
#62500
1!
11
1=
1>
1@
18
17
1%
#75000
0!
1"
01
12
1;
0=
0>
0@
08
07
0%
#87500
1!
11
1=
1>
1@
18
17
1%
#100000
0!
0"
0#
1$
01
02
03
14
1?
09
0;
0=
0>
0@
08
07
0%
#112500
1!
11
1=
1>
1@
18
17
1%
#125000
0!
1"
01
12
1;
0=
0>
0@
08
07
0%
#137500
1!
11
1=
1>
1@
18
17
1%
#150000
0!
0"
1#
01
02
13
19
0;
0=
0>
0@
08
07
0%
#162500
1!
11
1=
1>
1@
18
17
1%
#175000
0!
1"
01
12
1;
0=
0>
0@
08
07
0%
#187500
1!
11
1=
1>
1@
18
17
1%
#200000
0!
0"
0#
0$
1'
01
02
03
04
16
1<
0?
09
0;
0=
0>
0@
08
07
0%
#212500
1!
11
1=
#225000
0!
1"
01
12
1;
0=
1>
1@
18
17
1%
#237500
1!
11
1=
#250000
0!
0"
1#
01
02
13
19
0;
0=
0>
0@
08
07
0%
#262500
1!
11
1=
#275000
0!
1"
01
12
1;
0=
1>
1@
18
17
1%
#287500
1!
11
1=
#300000
0!
0"
0#
1$
01
02
03
14
1?
09
0;
0=
0>
0@
08
07
0%
#312500
1!
11
1=
#325000
0!
1"
01
12
1;
0=
1>
1@
18
17
1%
#337500
1!
11
1=
#350000
0!
0"
1#
01
02
13
19
0;
0=
0>
0@
08
07
0%
#362500
1!
11
1=
#375000
0!
1"
01
12
1;
0=
1>
1@
18
17
1%
#387500
1!
11
1=
#400000
0!
0"
0#
0$
0'
1&
01
02
03
04
06
15
1:
0<
0?
09
0;
0=
0>
0@
08
07
0%
#412500
1!
11
1=
#425000
0!
1"
01
12
1;
0=
#437500
1!
11
1=
#450000
0!
0"
1#
01
02
13
19
0;
0=
1@
18
17
1%
#462500
1!
11
1=
#475000
0!
1"
01
12
1;
0=
#487500
1!
11
1=
#500000
0!
0"
0#
1$
01
02
03
14
1?
09
0;
0=
0@
08
07
0%
#512500
1!
11
1=
#525000
0!
1"
01
12
1;
0=
#537500
1!
11
1=
#550000
0!
0"
1#
01
02
13
19
0;
0=
1@
18
17
1%
#562500
1!
11
1=
#575000
0!
1"
01
12
1;
0=
#587500
1!
11
1=
#600000
0!
0"
0#
0$
1'
01
02
03
04
16
1<
0?
09
0;
0=
0@
1>
08
07
0%
#612500
1!
11
1=
#625000
0!
1"
01
12
1;
0=
#637500
1!
11
1=
#650000
0!
0"
1#
01
02
13
19
0;
0=
#662500
1!
11
1=
#675000
0!
1"
01
12
1;
0=
#687500
1!
11
1=
#700000
0!
0"
0#
1$
01
02
03
14
1?
09
0;
0=
1@
18
17
1%
#712500
1!
11
1=
#725000
0!
1"
01
12
1;
0=
#737500
1!
11
1=
#750000
0!
0"
1#
01
02
13
19
0;
0=
#762500
1!
11
1=
#775000
0!
1"
01
12
1;
0=
#787500
1!
11
1=
#800000
0!
0"
0#
0$
0'
0&
01
02
03
04
06
05
0:
0<
0?
09
0;
0=
0>
0@
08
07
0%
#812500
1!
11
1=
1>
1@
18
17
1%
#825000
0!
1"
01
12
1;
0=
0>
0@
08
07
0%
#837500
1!
11
1=
1>
1@
18
17
1%
#850000
0!
0"
1#
01
02
13
19
0;
0=
0>
0@
08
07
0%
#862500
1!
11
1=
1>
1@
18
17
1%
#875000
0!
1"
01
12
1;
0=
0>
0@
08
07
0%
#887500
1!
11
1=
1>
1@
18
17
1%
#900000
0!
0"
0#
1$
01
02
03
14
1?
09
0;
0=
0>
0@
08
07
0%
#912500
1!
11
1=
1>
1@
18
17
1%
#925000
0!
1"
01
12
1;
0=
0>
0@
08
07
0%
#937500
1!
11
1=
1>
1@
18
17
1%
#950000
0!
0"
1#
01
02
13
19
0;
0=
0>
0@
08
07
0%
#962500
1!
11
1=
1>
1@
18
17
1%
#975000
0!
1"
01
12
1;
0=
0>
0@
08
07
0%
#987500
1!
11
1=
1>
1@
18
17
1%
