1ano/isd/quartus-projects/MuxDemo/simulation/qsim/MuxDemo.msim.vcd
$comment
	File created using the following command:
		vcd file MuxDemo.msim.vcd -direction
$end
$date
	Fri Nov 18 14:55:38 2022
$end
$version
	ModelSim Version 2020.1
$end
$timescale
	1ps
$end

$scope module mux16_1_vhd_vec_tst $end
$var wire 1 ! I0 $end
$var wire 1 " I2 $end
$var wire 1 # I3 $end
$var wire 1 $ I4 $end
$var wire 1 % I5 $end
$var wire 1 & I6 $end
$var wire 1 ' I7 $end
$var wire 1 ( I8 $end
$var wire 1 ) I9 $end
$var wire 1 * I10 $end
$var wire 1 + I11 $end
$var wire 1 , I12 $end
$var wire 1 - I13 $end
$var wire 1 . I14 $end
$var wire 1 / I15 $end
$var wire 1 0 pin_name1 $end
$var wire 1 1 Sel1 $end
$var wire 1 2 Sel2 $end
$var wire 1 3 Sel3 $end
$var wire 1 4 Sel4 $end
$var wire 1 5 ze $end

$scope module i1 $end
$var wire 1 6 gnd $end
$var wire 1 7 vcc $end
$var wire 1 8 unknown $end
$var wire 1 9 devoe $end
$var wire 1 : devclrn $end
$var wire 1 ; devpor $end
$var wire 1 < ww_devoe $end
$var wire 1 = ww_devclrn $end
$var wire 1 > ww_devpor $end
$var wire 1 ? ww_pin_name1 $end
$var wire 1 @ ww_Sel4 $end
$var wire 1 A ww_Sel3 $end
$var wire 1 B ww_Sel2 $end
$var wire 1 C ww_Sel1 $end
$var wire 1 D ww_I0 $end
$var wire 1 E ww_ze $end
$var wire 1 F ww_I2 $end
$var wire 1 G ww_I3 $end
$var wire 1 H ww_I4 $end
$var wire 1 I ww_I5 $end
$var wire 1 J ww_I6 $end
$var wire 1 K ww_I7 $end
$var wire 1 L ww_I8 $end
$var wire 1 M ww_I9 $end
$var wire 1 N ww_I10 $end
$var wire 1 O ww_I11 $end
$var wire 1 P ww_I12 $end
$var wire 1 Q ww_I13 $end
$var wire 1 R ww_I14 $end
$var wire 1 S ww_I15 $end
$var wire 1 T \pin_name1~output_o\ $end
$var wire 1 U \I14~input_o\ $end
$var wire 1 V \Sel2~input_o\ $end
$var wire 1 W \Sel1~input_o\ $end
$var wire 1 X \I12~input_o\ $end
$var wire 1 Y \inst14|inst2~7_combout\ $end
$var wire 1 Z \I13~input_o\ $end
$var wire 1 [ \I15~input_o\ $end
$var wire 1 \ \inst14|inst2~8_combout\ $end
$var wire 1 ] \I5~input_o\ $end
$var wire 1 ^ \I6~input_o\ $end
$var wire 1 _ \I4~input_o\ $end
$var wire 1 ` \inst14|inst2~2_combout\ $end
$var wire 1 a \I7~input_o\ $end
$var wire 1 b \inst14|inst2~3_combout\ $end
$var wire 1 c \Sel4~input_o\ $end
$var wire 1 d \Sel3~input_o\ $end
$var wire 1 e \I2~input_o\ $end
$var wire 1 f \ze~input_o\ $end
$var wire 1 g \I0~input_o\ $end
$var wire 1 h \inst14|inst2~4_combout\ $end
$var wire 1 i \I3~input_o\ $end
$var wire 1 j \inst14|inst2~5_combout\ $end
$var wire 1 k \inst14|inst2~6_combout\ $end
$var wire 1 l \I10~input_o\ $end
$var wire 1 m \I8~input_o\ $end
$var wire 1 n \I9~input_o\ $end
$var wire 1 o \inst14|inst2~0_combout\ $end
$var wire 1 p \I11~input_o\ $end
$var wire 1 q \inst14|inst2~1_combout\ $end
$var wire 1 r \inst14|inst2~9_combout\ $end
$upscope $end
$upscope $end
$enddefinitions $end
#0
$dumpvars
1!
0"
0#
0$
0%
1&
1'
1(
0)
0*
0+
0,
0-
0.
0/
00
11
12
03
04
05
06
17
x8
19
1:
1;
1<
1=
1>
0?
0@
0A
1B
1C
1D
0E
0F
0G
0H
0I
1J
1K
1L
0M
0N
0O
0P
0Q
0R
0S
0T
0U
1V
1W
0X
1Y
0Z
0[
0\
0]
1^
0_
1`
1a
1b
0c
0d
0e
0f
1g
1h
0i
0j
0k
0l
1m
0n
1o
0p
0q
0r
$end
#5000
0!
1"
1$
0'
1,
1.
01
02
0D
1F
1H
0K
1P
1R
0C
0B
0V
0W
1U
1X
0a
1_
1e
0g
1\
0h
1j
1q
1k
0j
0k
1r
0r
1T
1?
0T
10
0?
00
#10000
1!
0"
0$
1#
1%
0(
1*
13
14
1D
0F
0H
1G
1I
0L
1N
1A
1@
1c
1d
1l
0m
1]
1i
0_
0e
1g
1h
0`
0o
1k
1r
0q
0b
1j
1T
1?
10
#15000
0!
1$
0%
1(
0*
04
0.
1+
1-
1/
0D
1H
0I
1L
0N
0@
0R
1O
1Q
1S
1[
1Z
1p
0U
0c
0l
1m
0]
1_
0g
0h
1`
1o
0k
0r
1q
1b
0j
1k
1r
0T
0?
00
1T
1?
10
#20000
0$
0(
1*
1.
1"
03
0&
1)
0H
0L
1N
1R
1F
0A
0J
1M
1n
0^
0d
1e
1U
1l
0m
0_
0k
0`
0o
0q
0b
0r
0T
0?
00
#25000
1$
0.
13
0)
14
0-
0/
0#
1'
0,
1H
0R
1A
0M
1@
0Q
0S
0G
1K
0P
0X
1a
0i
0[
0Z
1c
0n
1d
0U
1_
1`
1k
0Y
0\
1r
1b
0r
1T
1?
0T
10
0?
00
#30000
1-
1/
1#
1(
0"
1&
0+
1Q
1S
1G
1L
0F
1J
0O
0p
1^
0e
1m
1i
1[
1Z
1o
1q
#35000
0/
0#
0(
0&
1+
1)
1,
0*
1!
0S
0G
0L
0J
1O
1M
1P
0N
1D
1g
0l
1X
1n
1p
0^
0m
0i
0[
0o
1Y
1h
1j
1\
0q
1r
1T
1?
10
#40000
1/
1#
1(
1&
0)
0,
1*
0!
0-
0$
1.
03
04
0'
1%
1S
1G
1L
1J
0M
0P
1N
0D
0Q
0H
1R
0A
0@
0K
1I
1]
0a
0c
0d
1U
0_
0Z
0g
1l
0X
0n
1^
1m
1i
1[
1o
0h
0`
0Y
0\
0b
0j
1q
0k
0r
0T
0?
00
#45000
0/
0#
1)
0*
1!
1-
0.
14
11
12
0S
0G
1M
0N
1D
1Q
0R
1@
1C
1B
1V
1W
1c
0U
1Z
1g
0l
1n
0i
0[
1r
1\
1b
1Y
1`
1h
0b
0\
1T
1?
10
#50000
1/
0!
0-
1.
0(
1,
1$
1'
0%
0+
1"
1S
0D
0Q
1R
0L
1P
1H
1K
0I
0O
1F
1e
0p
0]
1a
1_
1X
0m
1U
0Z
0g
1[
1\
1b
0q
0r
0T
0?
00
#55000
1-
0.
1(
0,
0"
01
02
0&
13
1Q
0R
1L
0P
0F
0C
0B
0J
1A
1d
0^
0V
0W
0e
0X
1m
0U
1Z
0Y
0h
1j
1q
1k
1r
0j
0\
0r
1T
1?
0T
10
0?
00
#60000
0-
0(
1&
1+
0)
04
0Q
0L
1J
1O
0M
0@
0c
0n
1p
1^
0m
0Z
0o
1r
0q
1T
1?
10
#65000
0&
1)
14
1.
1,
0/
0'
1*
0J
1M
1@
1R
1P
0S
0K
1N
1l
0a
0[
1X
1U
1c
1n
0^
0r
1Y
1\
1r
0T
0?
00
1T
1?
10
#70000
0)
04
0*
1"
03
1!
0$
1#
0M
0@
0N
1F
0A
1D
0H
1G
1i
0_
1g
0d
1e
0l
0c
0n
0k
1h
0`
0b
1j
0r
1k
1r
0T
0?
00
1T
1?
10
#75000
1*
0"
13
0!
1$
0#
1&
0.
0,
1'
1-
0+
1N
0F
1A
0D
1H
0G
1J
0R
0P
1K
1Q
0O
0p
1Z
1a
0X
0U
1^
0i
1_
0g
1d
0e
1l
0k
0h
1`
0Y
0\
1b
0j
0r
1k
1r
0T
0?
00
1T
1?
10
#80000
0*
1"
03
0$
1#
0-
1/
0N
1F
0A
0H
1G
0Q
1S
1[
0Z
1i
0_
0d
1e
0l
0k
0`
0b
0r
0T
0?
00
#85000
1*
13
0/
1!
1.
1+
14
1(
11
12
1N
1A
0S
1D
1R
1O
1@
1L
1C
1B
1V
1W
1m
1c
1p
1U
1g
0[
1d
1l
1k
1Y
1`
1h
1j
1o
1q
1b
#90000
0*
1/
04
0(
0"
1)
1%
0N
1S
0@
0L
0F
1M
1I
1]
1n
0e
0m
0c
1[
0l
1\
1r
1T
1?
10
#95000
1*
14
1(
0%
0.
0+
01
02
1N
1@
1L
0I
0R
0O
0C
0B
0V
0W
0p
0U
0]
1m
1c
1l
0Y
0`
0b
0\
0r
0T
0?
00
#100000
0*
0(
1%
1+
11
12
0/
03
1-
1,
0N
0L
1I
1O
1C
1B
0S
0A
1Q
1P
1X
1Z
0d
0[
1V
1W
1p
1]
0m
0l
1b
1`
0k
1\
1Y
0\
1r
1T
1?
10
#105000
1(
0%
0+
01
02
0-
1.
1$
1L
0I
0O
0C
0B
0Q
1R
1H
1_
1U
0Z
0V
0W
0p
0]
1m
1\
#110000
1+
1-
0.
1*
1/
0,
1"
0!
1O
1Q
0R
1N
1S
0P
1F
0D
0g
1e
0X
1[
1l
0U
1Z
1p
0Y
0h
0j
0\
#115000
0+
0"
0(
04
0)
0'
0O
0F
0L
0@
0M
0K
0a
0n
0c
0m
0e
0p
0r
0o
0q
0T
0?
00
#120000
1(
1'
0-
1.
0*
1,
1%
11
12
0$
0&
1L
1K
0Q
1R
0N
1P
1I
1C
1B
0H
0J
0^
0_
1V
1W
1]
1X
0l
1U
0Z
1a
1m
1Y
1h
1o
1j
1\
1k
1r
1T
1?
10
#125000
0'
0.
0,
1$
1+
1"
0#
0K
0R
0P
1H
1O
1F
0G
0i
1e
1p
1_
0X
0U
0a
0b
1q
0j
0k
0r
0T
0?
00
#130000
1.
1,
0"
1-
1&
1)
0/
1R
1P
0F
1Q
1J
1M
0S
0[
1n
1^
1Z
0e
1X
1U
0\
#135000
0&
1/
1'
0+
1*
01
02
13
0J
1S
1K
0O
1N
0C
0B
1A
1d
0V
0W
1l
0p
1a
1[
0^
1\
1b
0h
1j
0j
1k
1r
1T
1?
10
#140000
1&
0/
0'
1+
0*
03
0,
1"
0-
0)
0$
0(
1J
0S
0K
1O
0N
0A
0P
1F
0Q
0M
0H
0L
0m
0_
0n
0Z
1e
0X
0d
0l
1p
0a
0[
1^
0k
0Y
0`
0o
0q
0b
0\
0r
0T
0?
00
#145000
1'
0+
1*
0"
1)
0.
1#
0%
14
1K
0O
1N
0F
1M
0R
1G
0I
1@
1c
0]
1i
0U
1n
0e
1l
0p
1a
#150000
0*
1"
0)
1/
13
1-
1$
1!
0N
1F
0M
1S
1A
1Q
1H
1D
1g
1_
1Z
1d
1[
0n
1e
0l
1k
1`
1h
1j
1b
#155000
0"
03
0-
0$
0'
1.
1%
1(
0F
0A
0Q
0H
0K
1R
1I
1L
1m
1]
1U
0a
0_
0Z
0d
0e
0k
0`
1o
1q
0b
1r
1T
1?
10
#160000
13
1-
1$
1'
0%
0/
0!
0#
0&
1A
1Q
1H
1K
0I
0S
0D
0G
0J
0^
0i
0g
0[
0]
1a
1_
1Z
1d
1k
0h
1`
1b
0j
0r
0T
0?
00
#165000
03
0-
0$
1%
1/
1&
0(
1*
1)
1,
11
12
0A
0Q
0H
1I
1S
1J
0L
1N
1M
1P
1C
1B
1V
1W
1X
1n
1l
0m
1^
1[
1]
0_
0Z
0d
0k
1Y
1h
0q
1\
#170000
0%
1(
0,
0'
1#
0.
04
0I
1L
0P
0K
1G
0R
0@
0c
0U
1i
0a
0X
1m
0]
0b
1j
1k
1r
1T
1?
10
#175000
0(
1,
1'
13
1-
1$
0&
0L
1P
1K
1A
1Q
1H
0J
0^
1_
1Z
1d
1a
1X
0m
1b
0k
0r
1k
1r
0T
0?
1T
00
1?
10
#180000
0'
0-
0$
0#
1.
0)
1!
1"
1+
0K
0Q
0H
0G
1R
0M
1D
1F
1O
1p
1e
1g
0n
1U
0i
0_
0Z
0a
0b
0j
1q
0k
0r
0T
0?
00
#185000
1#
0"
0+
0,
03
1&
1%
1G
0F
0O
0P
0A
1J
1I
1]
1^
0d
0X
0p
0e
1i
1j
0q
1k
1r
1T
1?
10
#190000
1"
1+
1,
13
0&
14
0*
1F
1O
1P
1A
0J
1@
0N
0l
1c
0^
1d
1X
1p
1e
1q
#195000
0,
03
04
0#
0%
1'
1-
1$
1)
0!
1(
0/
0P
0A
0@
0G
0I
1K
1Q
1H
1M
0D
1L
0S
0[
1m
0g
1n
1_
1Z
1a
0]
0i
0c
0d
0X
0j
1b
0\
0k
0r
0T
0?
00
#200000
1,
13
14
1#
1%
0"
1&
1*
01
02
1P
1A
1@
1G
1I
0F
1J
1N
0C
0B
0V
0W
1l
1^
0e
1]
1i
1c
1d
1X
1k
1r
1\
0h
1j
0j
1T
1?
10
#205000
0,
04
0&
0*
0'
0$
0)
1!
0(
0+
0.
0P
0@
0J
0N
0K
0H
0M
1D
0L
0O
0R
0U
0p
0m
1g
0n
0_
0a
0l
0^
0c
0X
0`
1h
0o
0Y
0\
0q
1j
0b
0k
0r
0T
0?
00
#210000
1,
14
1&
0!
1(
1+
0#
0%
11
12
0-
1/
1P
1@
1J
0D
1L
1O
0G
0I
1C
1B
0Q
1S
1[
0Z
1V
1W
0]
0i
1p
1m
0g
1^
1c
1X
1k
1Y
1`
0j
1o
1q
1\
1r
1T
1?
10
#215000
04
1!
1#
01
02
1-
1)
1.
1"
0@
1D
1G
0C
0B
1Q
1M
1R
1F
1e
1U
1n
1Z
0V
0W
1i
1g
0c
0k
1b
0`
1j
0b
1k
0r
1r
0k
0r
0T
0?
1T
00
1?
0T
10
0?
00
#220000
14
0#
0.
0,
0&
0/
1@
0G
0R
0P
0J
0S
0[
0^
0X
0U
0i
1c
1k
1r
0Y
0\
0r
1T
1?
10
0T
0?
00
#225000
04
1#
1,
1&
11
12
0)
0"
0(
0+
1%
1'
0@
1G
1P
1J
1C
1B
0M
0F
0L
0O
1I
1K
1a
1]
0p
0m
0e
0n
1V
1W
1^
1X
1i
0c
0k
1r
1\
1Y
1`
0q
1b
1k
0\
0r
1r
1T
1?
0T
10
0?
1T
00
1?
10
#230000
1)
1"
1(
1.
0!
0-
1*
03
1M
1F
1L
1R
0D
0Q
1N
0A
0d
1l
0Z
0g
1U
1m
1e
1n
#235000
1!
14
0,
0&
01
02
1+
1D
1@
0P
0J
0C
0B
1O
1p
0V
0W
0^
0X
1c
1g
0k
0r
1\
0Y
0`
1q
0b
0\
1r
0T
0?
1T
00
1?
10
#240000
1&
0+
0"
0(
13
0'
1J
0O
0F
0L
1A
0K
0a
1d
0m
0e
0p
1^
0o
1k
0r
0q
0T
0?
00
#245000
03
0)
1-
0*
1/
0A
0M
1Q
0N
1S
1[
0l
1Z
0n
0d
0k
#250000
0-
0/
0&
1"
04
11
12
0#
1$
0Q
0S
0J
1F
0@
1C
1B
0G
1H
1_
0i
1V
1W
0c
1e
0^
0[
0Z
1k
1b
1Y
1o
0j
1`
0b
0k
1r
0r
1T
1?
0T
10
0?
00
#255000
1/
1&
1#
0$
13
1)
1*
1(
0!
0%
1S
1J
1G
0H
1A
1M
1N
1L
0D
0I
0]
0g
1m
1l
1n
1d
0_
1i
1^
1[
1\
1j
#260000
1$
03
0)
1!
14
1+
1'
1,
0.
1H
0A
0M
1D
1@
1O
1K
1P
0R
0U
1X
1a
1p
1c
1g
0n
0d
1_
1q
1b
1r
1T
1?
10
#265000
0$
0!
0+
0,
0/
0&
0#
0*
0(
1-
0H
0D
0O
0P
0S
0J
0G
0N
0L
1Q
1Z
0m
0l
0i
0^
0[
0X
0p
0g
0_
0j
0q
0\
0r
0T
0?
00
#270000
1$
1+
1,
1&
04
01
02
1H
1O
1P
1J
0@
0C
0B
0V
0W
0c
1^
1X
1p
1_
1\
0h
1j
0o
1q
0q
1k
0j
0k
1r
0r
1T
1?
0T
10
0?
00
#275000
0,
0&
14
1#
0-
1)
0'
0"
0P
0J
1@
1G
0Q
1M
0K
0F
0e
0a
1n
0Z
1i
1c
0^
0X
0Y
0\
#280000
1&
04
1-
1'
0+
11
12
1/
1*
1(
13
1%
1J
0@
1Q
1K
0O
1C
1B
1S
1N
1L
1A
1I
1]
1d
1m
1l
1[
1V
1W
0p
1a
1Z
0c
1^
1Y
1h
1\
1q
1o
1k
0q
1r
1j
1T
1?
10
#285000
0&
14
0'
1+
0*
03
1,
0$
1.
0J
1@
0K
1O
0N
0A
1P
0H
1R
1U
0_
1X
0d
0l
1p
0a
1c
0^
0b
1q
0k
#290000
1&
04
0.
0(
0#
1!
1J
0@
0R
0L
0G
1D
1g
0i
0m
0U
0c
1^
1k
0r
0j
0k
1r
0r
0T
0?
1T
00
1?
0T
10
0?
00
#295000
0&
14
1(
0!
1'
1*
13
0-
01
02
0/
0%
1"
0J
1@
1L
0D
1K
1N
1A
0Q
0C
0B
0S
0I
1F
1e
0]
0[
0V
0W
0Z
1d
1l
1a
0g
1m
1c
0^
1r
1k
0`
0h
1b
1j
0j
0b
1T
1?
10
#300000
1&
0(
0'
03
1%
0)
1J
0L
0K
0A
1I
0M
0n
1]
0d
0a
0m
1^
0k
0o
0q
0r
0T
0?
00
#305000
0&
1(
1'
1-
0+
0J
1L
1K
1Q
0O
0p
1Z
1a
1m
0^
1o
1q
1r
1T
1?
10
#310000
0(
0-
1+
0%
1)
04
11
12
1/
1#
1$
0L
0Q
1O
0I
1M
0@
1C
1B
1S
1G
1H
1_
1i
1[
1V
1W
0c
1n
0]
1p
0Z
0m
0r
1h
1j
1`
1b
1k
1r
0T
0?
00
1T
1?
10
#315000
1(
0+
1%
01
02
0#
1&
13
0*
1.
1L
0O
1I
0C
0B
0G
1J
1A
0N
1R
1U
0l
1d
1^
0i
0V
0W
1]
0p
1m
0h
0j
#320000
11
12
0&
1*
1-
0)
0$
0'
1!
1C
1B
0J
1N
1Q
0M
0H
0K
1D
1g
0a
0_
0n
1Z
1l
0^
1V
1W
1j
0q
0b
1h
0j
0k
0r
0T
0?
00
#325000
01
02
1&
0-
1'
0%
1#
03
0.
14
0/
0C
0B
1J
0Q
1K
0I
1G
0A
0R
1@
0S
0[
1c
0U
0d
1i
0]
1a
0Z
1^
0V
0W
1q
0`
1b
1j
0b
1r
1T
1?
10
#330000
0&
1-
0#
1.
04
1/
0*
0!
0"
0J
1Q
0G
1R
0@
1S
0N
0D
0F
0e
0g
0l
1[
0c
1U
0i
1Z
0^
1k
0r
0h
0j
1r
0k
0T
0r
0?
1T
00
1?
10
0T
0?
00
#335000
1&
0-
0.
14
1*
1!
11
12
0(
0,
1J
0Q
0R
1@
1N
1D
1C
1B
0L
0P
0X
0m
1V
1W
1g
1l
1c
0U
0Z
1^
1r
1`
1h
0q
0r
1b
1T
1?
0T
10
0?
00
#340000
0&
04
0!
01
02
1#
0/
1"
0'
1)
1+
0J
0@
0D
0C
0B
1G
0S
1F
0K
1M
1O
1p
1n
0a
1e
0[
1i
0V
0W
0g
0c
0^
0Y
0`
0h
1j
0o
1q
0q
1k
0j
0b
0\
0k
1r
0r
1T
1?
0T
10
0?
00
#345000
14
11
12
1'
0)
1.
0*
1(
1,
1%
1$
1@
1C
1B
1K
0M
1R
0N
1L
1P
1I
1H
1_
1]
1X
1m
0l
1U
0n
1a
1V
1W
1c
1h
1j
1o
1Y
1b
1`
1q
1r
1T
1?
10
#350000
04
01
02
0'
0.
1*
0,
0%
1&
0#
0"
0+
1-
0@
0C
0B
0K
0R
1N
0P
0I
1J
0G
0F
0O
1Q
1Z
0p
0e
0i
1^
0]
0X
1l
0U
0a
0V
0W
0c
1k
0r
0h
0Y
1\
0\
0j
1r
0k
0T
0r
0?
1T
00
1?
10
0T
0?
00
#355000
14
11
12
1'
1%
0&
1"
1/
13
1@
1C
1B
1K
1I
0J
1F
1S
1A
1d
1[
1e
0^
1]
1a
1V
1W
1c
1r
1Y
1h
0q
1j
1\
1k
0j
1T
1?
10
#360000
04
0%
0/
0*
1#
1+
0-
1)
0$
0@
0I
0S
0N
1G
1O
0Q
1M
0H
0_
1n
0Z
1p
1i
0l
0[
0]
0c
1j
1q
0\
#365000
1%
1/
1*
0+
0)
01
02
0"
1I
1S
1N
0O
0M
0C
0B
0F
0e
0V
0W
0n
0p
1l
1[
1]
1\
0Y
0`
0h
0j
0b
0\
0k
0r
0T
0?
00
#370000
0*
1+
1)
11
12
1$
1&
1.
0(
0N
1O
1M
1C
1B
1H
1J
1R
0L
0m
1U
1^
1_
1V
1W
1n
1p
0l
1b
1h
1`
1Y
1\
1j
1k
1r
1T
1?
10
#375000
1*
0.
1(
14
1,
1!
1N
0R
1L
1@
1P
1D
1g
1X
1c
1m
0U
1l
#380000
1.
0,
0)
0$
0%
0#
03
1R
0P
0M
0H
0I
0G
0A
0d
0i
0]
0_
0n
0X
1U
0j
0k
#385000
0.
1)
0*
0(
04
0!
0+
0/
1-
0R
1M
0N
0L
0@
0D
0O
0S
1Q
1Z
0[
0p
0g
0c
0m
0l
1n
0U
0r
0q
0\
0T
0?
00
#390000
1.
1*
1!
1+
1/
1,
1#
01
02
0&
1R
1N
1D
1O
1S
1P
1G
0C
0B
0J
0^
0V
0W
1i
1X
1[
1p
1g
1l
1U
1\
1j
0o
1q
0`
0b
0q
1k
1r
1T
1?
10
#395000
0.
0!
0+
0,
0#
1&
1(
0-
13
0'
0R
0D
0O
0P
0G
1J
1L
0Q
1A
0K
0a
1d
0Z
1m
1^
0i
0X
0p
0g
0U
0h
0Y
1o
0k
0r
1q
0\
0j
0T
0?
00
#400000
1!
1+
1,
0&
0(
1'
11
12
0)
14
1%
1D
1O
1P
0J
0L
1K
1C
1B
0M
1@
1I
1]
1c
0n
1V
1W
1a
0m
0^
1X
1p
1g
1Y
1`
1h
1k
1r
1b
0r
1\
1r
1T
1?
0T
10
0?
1T
00
1?
10
#405000
0!
0,
1(
01
02
1)
04
1#
1-
0*
1"
0D
0P
1L
0C
0B
1M
0@
1G
1Q
0N
1F
1e
0l
1Z
1i
0c
1n
0V
0W
1m
0X
0g
0Y
0`
0h
1j
0j
0b
0\
0k
0r
0T
0?
00
#410000
11
12
14
0+
1&
0'
0%
1.
0/
1C
1B
1@
0O
1J
0K
0I
1R
0S
0[
1U
0]
0a
1^
0p
1c
1V
1W
1h
1j
1k
1r
0q
1`
1Y
1\
0\
0r
1T
1?
10
0T
0?
00
#415000
1+
0&
1'
1%
1/
0)
0-
0"
03
1$
1O
0J
1K
1I
1S
0M
0Q
0F
0A
1H
1_
0d
0e
0Z
0n
1[
1]
1a
0^
1p
1q
1b
1\
0k
1r
1T
1?
10
#420000
0+
0'
1-
1"
13
0.
1,
1*
0O
0K
1Q
1F
1A
0R
1P
1N
1l
1X
0U
1d
1e
1Z
0a
0p
0b
1k
0q
#425000
0"
0,
1&
0%
0/
0F
0P
1J
0I
0S
0[
0]
1^
0X
0e
0\
0r
0T
0?
00
#430000
1%
1/
1'
03
1.
0*
0$
01
02
0(
0#
1I
1S
1K
0A
1R
0N
0H
0C
0B
0L
0G
0i
0m
0V
0W
0_
0l
1U
0d
1a
1[
1]
0k
1\
1b
0Y
0`
0h
1q
0o
0q
0j
0b
0\
1r
0r
1T
1?
0T
10
0?
00
#435000
0/
13
0.
1$
1(
0&
04
0S
1A
0R
1H
1L
0J
0@
0c
0^
1m
1_
0U
1d
0[
1o
1`
1b
1q
1k
1r
1T
1?
10
#440000
03
0$
0'
1*
1"
1,
1+
1)
1!
0A
0H
0K
1N
1F
1P
1O
1M
1D
1g
1n
1p
1X
1e
1l
0a
0_
0d
0k
0`
1Y
1h
1j
1\
0b
0r
1k
1r
0T
0?
00
1T
1?
10
#445000
13
1$
1'
0*
0"
0!
1/
1.
0(
1&
14
0%
11
12
1#
0-
1A
1H
1K
0N
0F
0D
1S
1R
0L
1J
1@
0I
1C
1B
1G
0Q
0Z
1i
1V
1W
0]
1c
1^
0m
1U
1[
0g
0e
0l
1a
1_
1d
1`
1b
#450000
0$
0'
1"
1!
0/
0.
1(
04
1%
01
02
0H
0K
1F
1D
0S
0R
1L
0@
1I
0C
0B
0V
0W
1]
0c
1m
0U
0[
1g
1e
0a
0_
0`
0b
0k
0r
0T
0?
00
#455000
1$
1'
0"
1.
14
0,
0+
0)
1H
1K
0F
1R
1@
0P
0O
0M
0n
0p
0X
1c
1U
0e
1a
1_
1`
1k
1r
0Y
0\
1b
0r
1T
1?
10
0T
0?
00
#460000
0$
0'
04
1+
0!
0(
0%
11
12
0#
0H
0K
0@
1O
0D
0L
0I
1C
1B
0G
0i
1V
1W
0]
0m
0g
1p
0c
0a
0_
1r
0b
1Y
0j
0k
0r
1T
1?
10
0T
0?
00
#465000
14
1(
1#
1,
1)
1/
0&
1-
1@
1L
1G
1P
1M
1S
0J
1Q
1Z
0^
1[
1n
1X
1i
1m
1c
1k
1r
1j
1\
1T
1?
10
#470000
0#
0/
0-
1'
1%
1"
0.
0G
0S
0Q
1K
1I
1F
0R
0U
1e
1]
1a
0Z
0[
0i
0\
1b
0j
0r
0T
0?
00
#475000
1/
0%
1.
0,
0)
1&
1$
0+
1S
0I
1R
0P
0M
1J
1H
0O
0p
1_
1^
0n
0X
1U
0]
1[
1\
0q
1r
1T
1?
10
#480000
1,
1)
0&
0$
1+
1#
1-
0'
0"
0(
1!
01
02
1P
1M
0J
0H
1O
1G
1Q
0K
0F
0L
1D
0C
0B
0V
0W
1g
0m
0e
0a
1Z
1i
1p
0_
0^
1n
1X
0`
1j
0o
1q
0q
0b
#485000
0,
0)
0#
0-
1"
0!
1%
0.
03
1*
0P
0M
0G
0Q
1F
0D
1I
0R
0A
1N
1l
0d
0U
1]
0g
1e
0Z
0i
0n
0X
0h
0Y
0k
0r
0\
0j
0T
0?
00
#490000
1)
1#
0"
0+
1'
0/
1M
1G
0F
0O
1K
0S
0[
1a
0p
0e
1i
1n
#495000
1+
0'
1/
1,
1!
0*
1&
1$
1(
11
12
1O
0K
1S
1P
1D
0N
1J
1H
1L
1C
1B
1V
1W
1m
1_
1^
0l
1g
1X
1[
0a
1p
1b
1Y
1`
1h
1o
1q
1j
0b
1\
1r
1T
1?
10
#500000
0+
1'
0&
0(
01
02
0#
0%
1.
04
0O
1K
0J
0L
0C
0B
0G
0I
1R
0@
0c
1U
0]
0i
0V
0W
0m
0^
1a
0p
0o
1b
1k
0r
1r
0q
0T
0?
1T
00
1?
10
#505000
1+
1&
1#
0.
0,
1*
0$
1-
13
1O
1J
1G
0R
0P
1N
0H
1Q
1A
1d
1Z
0_
1l
0X
0U
1i
1^
1p
0Y
0`
0b
0\
0k
0r
0T
0?
00
#510000
0&
0-
03
11
12
14
0/
0!
0)
1"
0J
0Q
0A
1C
1B
1@
0S
0D
0M
1F
1e
0n
0g
0[
1c
1V
1W
0d
0Z
0^
1Y
1`
1q
1o
1r
1b
1T
1?
10
#515000
1&
1-
13
1/
1)
0"
0+
1.
1,
0*
1$
1(
1J
1Q
1A
1S
1M
0F
0O
1R
1P
0N
1H
1L
1m
1_
0l
1X
1U
0p
0e
1n
1[
1d
1Z
1^
1k
1\
0q
#520000
03
0)
1"
0.
01
02
04
0#
0A
0M
1F
0R
0C
0B
0@
0G
0i
0c
0V
0W
0U
1e
0n
0d
0h
1q
0j
0k
0r
0T
0?
00
#525000
13
0"
1.
11
12
0&
1+
0,
1*
0'
1A
0F
1R
1C
1B
0J
1O
0P
1N
0K
0a
1l
0X
1p
0^
1V
1W
1U
0e
1d
1k
1h
0b
0k
1r
0r
1T
1?
0T
10
0?
00
#530000
03
1"
0.
01
02
1&
0+
1#
0/
0$
1!
0A
1F
0R
0C
0B
1J
0O
1G
0S
0H
1D
1g
0_
0[
1i
0p
1^
0V
0W
0U
1e
0d
1b
0Y
1j
0`
0b
0\
1k
1r
1T
1?
10
#535000
13
1.
0&
1$
0!
0-
1%
1A
1R
0J
1H
0D
0Q
1I
1]
0Z
0g
1_
0^
1U
1d
0k
1`
0h
0j
1b
0r
1k
1r
0T
0?
00
1T
1?
10
#540000
11
12
1/
1'
0(
1C
1B
1S
1K
0L
0m
1a
1[
1V
1W
1Y
1h
1j
0q
1\
#545000
1(
03
1&
1!
0"
1+
14
1L
0A
1J
1D
0F
1O
1@
1c
1p
0e
1g
1^
0d
1m
1q
0k
#550000
0(
13
0!
01
02
0'
1,
0*
1)
0L
1A
0D
0C
0B
0K
1P
0N
1M
1n
0l
1X
0a
0V
0W
0g
1d
0m
1k
0h
0o
0q
0j
#555000
03
11
12
1'
0)
0&
04
0$
1-
0%
0A
1C
1B
1K
0M
0J
0@
0H
1Q
0I
0]
1Z
0_
0c
0^
0n
1a
1V
1W
0d
1h
1o
0k
0r
1q
1j
1k
1r
0T
0?
00
1T
1?
10
#560000
1)
1&
14
1$
0-
1!
1*
1"
1M
1J
1@
1H
0Q
1D
1N
1F
1e
1l
1g
0Z
1_
1c
1^
1n
0k
#565000
0!
0"
01
02
1(
0+
0.
0#
0D
0F
0C
0B
1L
0O
0R
0G
0i
0U
0p
1m
0V
0W
0e
0g
0h
0j
#570000
1.
0)
0&
1R
0M
0J
0^
0n
1U
#575000
0.
0(
1+
1#
1-
13
1%
0,
0R
0L
1O
1G
1Q
1A
1I
0P
0X
1]
1d
1Z
1i
1p
0m
0U
0o
1k
0Y
0\
0q
0r
0T
0?
00
#580000
1(
0#
0-
03
1,
1&
1!
1"
0*
1L
0G
0Q
0A
1P
1J
1D
1F
0N
0l
1e
1g
1^
1X
0d
0Z
0i
1m
1o
0k
1Y
1h
1j
1\
1q
1r
1T
1?
10
#585000
0(
0&
0"
1.
0%
1)
11
12
0$
0L
0J
0F
1R
0I
1M
1C
1B
0H
0_
1V
1W
1n
0]
1U
0e
0^
0m
0j
#590000
1(
0.
1%
1#
0!
1*
0+
04
0/
1L
0R
1I
1G
0D
1N
0O
0@
0S
0[
0c
0p
1l
0g
1i
1]
0U
1m
1j
0q
0r
0\
1k
1r
0T
0?
00
1T
1?
10
