1ano/2semestre/lsd/pratica01/part4/simulation/qsim/EqCmpDemo.msim.vcd
$comment
	File created using the following command:
		vcd file EqCmpDemo.msim.vcd -direction
$end
$date
	Tue Mar  7 20:57:58 2023
$end
$version
	ModelSim Version 2020.1
$end
$timescale
	1ps
$end

$scope module eqcmpdemo_vhd_vec_tst $end
$var wire 1 ! LEDG [0] $end
$var wire 1 " SW [7] $end
$var wire 1 # SW [6] $end
$var wire 1 $ SW [5] $end
$var wire 1 % SW [4] $end
$var wire 1 & SW [3] $end
$var wire 1 ' SW [2] $end
$var wire 1 ( SW [1] $end
$var wire 1 ) SW [0] $end

$scope module i1 $end
$var wire 1 * gnd $end
$var wire 1 + vcc $end
$var wire 1 , unknown $end
$var wire 1 - devoe $end
$var wire 1 . devclrn $end
$var wire 1 / devpor $end
$var wire 1 0 ww_devoe $end
$var wire 1 1 ww_devclrn $end
$var wire 1 2 ww_devpor $end
$var wire 1 3 ww_LEDG [0] $end
$var wire 1 4 ww_SW [7] $end
$var wire 1 5 ww_SW [6] $end
$var wire 1 6 ww_SW [5] $end
$var wire 1 7 ww_SW [4] $end
$var wire 1 8 ww_SW [3] $end
$var wire 1 9 ww_SW [2] $end
$var wire 1 : ww_SW [1] $end
$var wire 1 ; ww_SW [0] $end
$var wire 1 < \LEDG[0]~output_o\ $end
$var wire 1 = \SW[1]~input_o\ $end
$var wire 1 > \SW[0]~input_o\ $end
$var wire 1 ? \SW[5]~input_o\ $end
$var wire 1 @ \SW[4]~input_o\ $end
$var wire 1 A \inst1|inst~0_combout\ $end
$var wire 1 B \SW[7]~input_o\ $end
$var wire 1 C \SW[6]~input_o\ $end
$var wire 1 D \SW[3]~input_o\ $end
$var wire 1 E \SW[2]~input_o\ $end
$var wire 1 F \inst1|inst~1_combout\ $end
$var wire 1 G \inst1|inst~combout\ $end
$upscope $end
$upscope $end
$enddefinitions $end
#0
$dumpvars
0*
1+
x,
1-
1.
1/
10
11
12
1<
0=
0>
0?
0@
1A
0B
0C
0D
0E
1F
1G
0"
0#
0$
0%
0&
0'
0(
0)
13
04
05
06
07
08
09
0:
0;
1!
$end
#3375
1)
1;
1>
0A
0G
0<
03
0!
#6250
1(
1:
1=
#6750
0)
0;
0>
#10125
1)
1;
1>
#12500
0(
1'
0:
19
1E
0=
0F
#13500
0)
0;
0>
1A
#16875
1)
1;
1>
0A
#18750
1(
1:
1=
#20250
0)
0;
0>
#23625
1)
1;
1>
#25000
0(
0'
1&
0:
09
18
1D
0E
0=
#27000
0)
0;
0>
1A
#30375
1)
1;
1>
0A
#31250
1(
1:
1=
#33750
0)
0;
0>
#37125
1)
1;
1>
#37500
0(
1'
0:
19
1E
0=
#40500
0)
0;
0>
1A
#43750
1(
1:
1=
0A
#43875
1)
1;
1>
#47250
0)
0;
0>
#50000
0(
0'
0&
1%
0:
09
08
17
1@
0D
0E
0=
1F
#50625
1)
1;
1>
1A
1G
1<
13
1!
#54000
0)
0;
0>
0A
0G
0<
03
0!
#56250
1(
1:
1=
#57375
1)
1;
1>
#60750
0)
0;
0>
#62500
0(
1'
0:
19
1E
0=
0F
#64125
1)
1;
1>
1A
#67500
0)
0;
0>
0A
#68750
1(
1:
1=
#70875
1)
1;
1>
#74250
0)
0;
0>
#75000
0(
0'
1&
0:
09
18
1D
0E
0=
#77625
1)
1;
1>
1A
#81000
0)
0;
0>
0A
#81250
1(
1:
1=
#84375
1)
1;
1>
#87500
0(
1'
0:
19
1E
0=
1A
#87750
0)
0;
0>
0A
#91125
1)
1;
1>
1A
#93750
1(
1:
1=
0A
#94500
0)
0;
0>
#97875
1)
1;
1>
#100000
0(
0'
0&
0%
1$
0:
09
08
07
16
1?
0@
0D
0E
0=
1F
#101250
0)
0;
0>
#104625
1)
1;
1>
#106250
1(
1:
1=
#108000
0)
0;
0>
1A
1G
1<
13
1!
#111375
1)
1;
1>
0A
0G
0<
03
0!
#112500
0(
1'
0:
19
1E
0=
0F
#114750
0)
0;
0>
#118125
1)
1;
1>
#118750
1(
1:
1=
#121500
0)
0;
0>
1A
#124875
1)
1;
1>
0A
#125000
0(
0'
1&
0:
09
18
1D
0E
0=
#128250
0)
0;
0>
#131250
1(
1:
1=
1A
#131625
1)
1;
1>
0A
#135000
0)
0;
0>
1A
#137500
0(
1'
0:
19
1E
0=
0A
#138375
1)
1;
1>
#141750
0)
0;
0>
#143750
1(
1:
1=
1A
#145125
1)
1;
1>
0A
#148500
0)
0;
0>
1A
#150000
0(
0'
0&
1%
0:
09
08
17
1@
0D
0E
0=
1F
0A
#151875
1)
1;
1>
#155250
0)
0;
0>
#156250
1(
1:
1=
#158625
1)
1;
1>
1A
1G
1<
13
1!
#162000
0)
0;
0>
0A
0G
0<
03
0!
#162500
0(
1'
0:
19
1E
0=
0F
#165375
1)
1;
1>
#168750
0)
1(
0;
1:
1=
0>
#172125
1)
1;
1>
1A
#175000
0(
0'
1&
0:
09
18
1D
0E
0=
0A
#175500
0)
0;
0>
#178875
1)
1;
1>
#181250
1(
1:
1=
1A
#182250
0)
0;
0>
0A
#185625
1)
1;
1>
1A
#187500
0(
1'
0:
19
1E
0=
0A
#189000
0)
0;
0>
#192375
1)
1;
1>
#193750
1(
1:
1=
1A
#195750
0)
0;
0>
0A
#199125
1)
1;
1>
1A
#200000
0(
0'
0&
0%
0$
1#
0:
09
08
07
06
15
1C
0?
0@
0D
0E
0=
0A
#202500
0)
0;
0>
1A
#205875
1)
1;
1>
0A
#206250
1(
1:
1=
#209250
0)
0;
0>
#212500
0(
1'
0:
19
1E
0=
1A
1F
1G
1<
13
1!
#212625
1)
1;
1>
0A
0G
0<
03
0!
#216000
0)
0;
0>
1A
1G
1<
13
1!
#218750
1(
1:
1=
0A
0G
0<
03
0!
#219375
1)
1;
1>
#222750
0)
0;
0>
#225000
0(
0'
1&
0:
09
18
1D
0E
0=
1A
0F
#226125
1)
1;
1>
0A
#229500
0)
0;
0>
1A
#231250
1(
1:
1=
0A
#232875
1)
1;
1>
#236250
0)
0;
0>
#237500
0(
1'
0:
19
1E
0=
1A
#239625
1)
1;
1>
0A
#243000
0)
0;
0>
1A
#243750
1(
1:
1=
0A
#246375
1)
1;
1>
#249750
0)
0;
0>
#250000
0(
0'
0&
1%
0:
09
08
17
1@
0D
0E
0=
#253125
1)
1;
1>
1A
#256250
1(
1:
1=
0A
#256500
0)
0;
0>
#259875
1)
1;
1>
#262500
0(
1'
0:
19
1E
0=
1A
1F
1G
1<
13
1!
#263250
0)
0;
0>
0A
0G
0<
03
0!
#266625
1)
1;
1>
1A
1G
1<
13
1!
#268750
1(
1:
1=
0A
0G
0<
03
0!
#270000
0)
0;
0>
#273375
1)
1;
1>
#275000
0(
0'
1&
0:
09
18
1D
0E
0=
1A
0F
#276750
0)
0;
0>
0A
#280125
1)
1;
1>
1A
#281250
1(
1:
1=
0A
#283500
0)
0;
0>
#286875
1)
1;
1>
#287500
0(
1'
0:
19
1E
0=
1A
#290250
0)
0;
0>
0A
#293625
1)
1;
1>
1A
#293750
1(
1:
1=
0A
#297000
0)
0;
0>
#300000
0(
0'
0&
0%
1$
0:
09
08
07
16
1?
0@
0D
0E
0=
#300375
1)
1;
1>
#303750
0)
0;
0>
#306250
1(
1:
1=
1A
#307125
1)
1;
1>
0A
#310500
0)
0;
0>
1A
#312500
0(
1'
0:
19
1E
0=
0A
1F
#313875
1)
1;
1>
#317250
0)
0;
0>
#318750
1(
1:
1=
1A
1G
1<
13
1!
#320625
1)
1;
1>
0A
0G
0<
03
0!
#324000
0)
0;
0>
1A
1G
1<
13
1!
#325000
0(
0'
1&
0:
09
18
1D
0E
0=
0A
0F
0G
0<
03
0!
#327375
1)
1;
1>
#330750
0)
0;
0>
#331250
1(
1:
1=
1A
#334125
1)
1;
1>
0A
#337500
0)
0(
1'
0;
0:
19
1E
0=
0>
#340875
1)
1;
1>
#343750
1(
1:
1=
#344250
0)
0;
0>
1A
#347625
1)
1;
1>
0A
#350000
0(
0'
0&
1%
0:
09
08
17
1@
0D
0E
0=
#351000
0)
0;
0>
#354375
1)
1;
1>
#356250
1(
1:
1=
1A
#357750
0)
0;
0>
0A
#361125
1)
1;
1>
1A
#362500
0(
1'
0:
19
1E
0=
0A
1F
#364500
0)
0;
0>
#367875
1)
1;
1>
#368750
1(
1:
1=
1A
1G
1<
13
1!
#371250
0)
0;
0>
0A
0G
0<
03
0!
#374625
1)
1;
1>
1A
1G
1<
13
1!
#375000
0(
0'
1&
0:
09
18
1D
0E
0=
0A
0F
0G
0<
03
0!
#378000
0)
0;
0>
#381250
1(
1:
1=
#381375
1)
1;
1>
1A
#384750
0)
0;
0>
0A
#387500
0(
1'
0:
19
1E
0=
#388125
1)
1;
1>
#391500
0)
0;
0>
#393750
1(
1:
1=
#394875
1)
1;
1>
1A
#398250
0)
0;
0>
0A
#400000
0(
0'
0&
0%
0$
0#
1"
0:
09
08
07
06
05
14
1B
0C
0?
0@
0D
0E
0=
1A
#401625
1)
1;
1>
0A
#405000
0)
0;
0>
1A
#406250
1(
1:
1=
0A
#408375
1)
1;
1>
#411750
0)
0;
0>
#412500
0(
1'
0:
19
1E
0=
1A
#415125
1)
1;
1>
0A
#418500
0)
0;
0>
1A
#418750
1(
1:
1=
0A
#421875
1)
1;
1>
#425000
0(
0'
1&
0:
09
18
1D
0E
0=
1F
#425250
0)
0;
0>
1A
1G
1<
13
1!
#428625
1)
1;
1>
0A
0G
0<
03
0!
#431250
1(
1:
1=
#432000
0)
0;
0>
#435375
1)
1;
1>
#437500
0(
1'
0:
19
1E
0=
0F
#438750
0)
0;
0>
1A
#442125
1)
1;
1>
0A
#443750
1(
1:
1=
#445500
0)
0;
0>
#448875
1)
1;
1>
#450000
0(
0'
0&
1%
0:
09
08
17
1@
0D
0E
0=
1A
#452250
0)
0;
0>
0A
#455625
1)
1;
1>
1A
#456250
1(
1:
1=
0A
#459000
0)
0;
0>
#462375
1)
1;
1>
#462500
0(
1'
0:
19
1E
0=
1A
#465750
0)
0;
0>
0A
#468750
1(
1:
1=
#469125
1)
1;
1>
#472500
0)
0;
0>
#475000
0(
0'
1&
0:
09
18
1D
0E
0=
1F
#475875
1)
1;
1>
1A
1G
1<
13
1!
#479250
0)
0;
0>
0A
0G
0<
03
0!
#481250
1(
1:
1=
#482625
1)
1;
1>
#486000
0)
0;
0>
#487500
0(
1'
0:
19
1E
0=
0F
#489375
1)
1;
1>
1A
#492750
0)
0;
0>
0A
#493750
1(
1:
1=
#496125
1)
1;
1>
#499500
0)
0;
0>
#500000
0(
0'
0&
0%
1$
0:
09
08
07
16
1?
0@
0D
0E
0=
#502875
1)
1;
1>
#506250
0)
1(
0;
1:
1=
0>
1A
#509625
1)
1;
1>
0A
#512500
0(
1'
0:
19
1E
0=
#513000
0)
0;
0>
#516375
1)
1;
1>
#518750
1(
1:
1=
#519750
0)
0;
0>
1A
#523125
1)
1;
1>
0A
#525000
0(
0'
1&
0:
09
18
1D
0E
0=
1F
#526500
0)
0;
0>
#529875
1)
1;
1>
#531250
1(
1:
1=
#533250
0)
0;
0>
1A
1G
1<
13
1!
#536625
1)
1;
1>
0A
0G
0<
03
0!
#537500
0(
1'
0:
19
1E
0=
0F
#540000
0)
0;
0>
#543375
1)
1;
1>
#543750
1(
1:
1=
#546750
0)
0;
0>
1A
#550000
0(
0'
0&
1%
0:
09
08
17
1@
0D
0E
0=
0A
#550125
1)
1;
1>
#553500
0)
0;
0>
#556250
1(
1:
1=
#556875
1)
1;
1>
1A
#560250
0)
0;
0>
0A
#562500
0(
1'
0:
19
1E
0=
#563625
1)
1;
1>
#567000
0)
0;
0>
#568750
1(
1:
1=
#570375
1)
1;
1>
1A
#573750
0)
0;
0>
0A
#575000
0(
0'
1&
0:
09
18
1D
0E
0=
1F
#577125
1)
1;
1>
#580500
0)
0;
0>
#581250
1(
1:
1=
#583875
1)
1;
1>
1A
1G
1<
13
1!
#587250
0)
0;
0>
0A
0G
0<
03
0!
#587500
0(
1'
0:
19
1E
0=
0F
#590625
1)
1;
1>
#593750
1(
1:
1=
1A
#594000
0)
0;
0>
0A
#597375
1)
1;
1>
1A
#600000
0(
0'
0&
0%
0$
1#
0:
09
08
07
06
15
1C
0?
0@
0D
0E
0=
0A
#600750
0)
0;
0>
1A
#604125
1)
1;
1>
0A
#606250
1(
1:
1=
#607500
0)
0;
0>
#610875
1)
1;
1>
#612500
0(
1'
0:
19
1E
0=
#614250
0)
0;
0>
1A
#617625
1)
1;
1>
0A
#618750
1(
1:
1=
#621000
0)
0;
0>
#624375
1)
1;
1>
#625000
0(
0'
1&
0:
09
18
1D
0E
0=
#627750
0)
0;
0>
1A
#631125
1)
1;
1>
0A
#631250
1(
1:
1=
#634500
0)
0;
0>
#637500
0(
1'
0:
19
1E
0=
1A
1F
1G
1<
13
1!
#637875
1)
1;
1>
0A
0G
0<
03
0!
#641250
0)
0;
0>
1A
1G
1<
13
1!
#643750
1(
1:
1=
0A
0G
0<
03
0!
#644625
1)
1;
1>
#648000
0)
0;
0>
#650000
0(
0'
0&
1%
0:
09
08
17
1@
0D
0E
0=
0F
#651375
1)
1;
1>
1A
#654750
0)
0;
0>
0A
#656250
1(
1:
1=
#658125
1)
1;
1>
#661500
0)
0;
0>
#662500
0(
1'
0:
19
1E
0=
#664875
1)
1;
1>
1A
#668250
0)
0;
0>
0A
#668750
1(
1:
1=
#671625
1)
1;
1>
#675000
0)
0(
0'
1&
0;
0:
09
18
1D
0E
0=
0>
#678375
1)
1;
1>
1A
#681250
1(
1:
1=
0A
#681750
0)
0;
0>
#685125
1)
1;
1>
#687500
0(
1'
0:
19
1E
0=
1A
1F
1G
1<
13
1!
#688500
0)
0;
0>
0A
0G
0<
03
0!
#691875
1)
1;
1>
1A
1G
1<
13
1!
#693750
1(
1:
1=
0A
0G
0<
03
0!
#695250
0)
0;
0>
#698625
1)
1;
1>
#700000
0(
0'
0&
0%
1$
0:
09
08
07
16
1?
0@
0D
0E
0=
0F
#702000
0)
0;
0>
#705375
1)
1;
1>
#706250
1(
1:
1=
#708750
0)
0;
0>
1A
#712125
1)
1;
1>
0A
#712500
0(
1'
0:
19
1E
0=
#715500
0)
0;
0>
#718750
1(
1:
1=
1A
#718875
1)
1;
1>
0A
#722250
0)
0;
0>
1A
#725000
0(
0'
1&
0:
09
18
1D
0E
0=
0A
#725625
1)
1;
1>
#729000
0)
0;
0>
#731250
1(
1:
1=
1A
#732375
1)
1;
1>
0A
#735750
0)
0;
0>
1A
#737500
0(
1'
0:
19
1E
0=
0A
1F
#739125
1)
1;
1>
#742500
0)
0;
0>
#743750
1(
1:
1=
1A
1G
1<
13
1!
#745875
1)
1;
1>
0A
0G
0<
03
0!
#749250
0)
0;
0>
1A
1G
1<
13
1!
#750000
0(
0'
0&
1%
0:
09
08
17
1@
0D
0E
0=
0F
0A
0G
0<
03
0!
#752625
1)
1;
1>
#756000
0)
0;
0>
#756250
1(
1:
1=
#759375
1)
1;
1>
1A
#762500
0(
1'
0:
19
1E
0=
0A
#762750
0)
0;
0>
#766125
1)
1;
1>
#768750
1(
1:
1=
1A
#769500
0)
0;
0>
0A
#772875
1)
1;
1>
1A
#775000
0(
0'
1&
0:
09
18
1D
0E
0=
0A
#776250
0)
0;
0>
#779625
1)
1;
1>
#781250
1(
1:
1=
1A
#783000
0)
0;
0>
0A
#786375
1)
1;
1>
1A
#787500
0(
1'
0:
19
1E
0=
0A
1F
#789750
0)
0;
0>
#793125
1)
1;
1>
#793750
1(
1:
1=
1A
1G
1<
13
1!
#796500
0)
0;
0>
0A
0G
0<
03
0!
#799875
1)
1;
1>
1A
1G
1<
13
1!
#800000
0(
0'
0&
0%
0$
0#
0"
0:
09
08
07
06
05
04
0B
0C
0?
0@
0D
0E
0=
0A
0G
0<
03
0!
#803250
0)
0;
0>
1A
1G
1<
13
1!
#806250
1(
1:
1=
0A
0G
0<
03
0!
#806625
1)
1;
1>
#810000
0)
0;
0>
#812500
0(
1'
0:
19
1E
0=
1A
0F
#813375
1)
1;
1>
0A
#816750
0)
0;
0>
1A
#818750
1(
1:
1=
0A
#820125
1)
1;
1>
#823500
0)
0;
0>
#825000
0(
0'
1&
0:
09
18
1D
0E
0=
1A
#826875
1)
1;
1>
0A
#830250
0)
0;
0>
1A
#831250
1(
1:
1=
0A
#833625
1)
1;
1>
#837000
0)
0;
0>
#837500
0(
1'
0:
19
1E
0=
1A
#840375
1)
1;
1>
0A
#843750
0)
1(
0;
1:
1=
0>
#847125
1)
1;
1>
#850000
0(
0'
0&
1%
0:
09
08
17
1@
0D
0E
0=
1F
1A
1G
1<
13
1!
#850500
0)
0;
0>
0A
0G
0<
03
0!
#853875
1)
1;
1>
1A
1G
1<
13
1!
#856250
1(
1:
1=
0A
0G
0<
03
0!
#857250
0)
0;
0>
#860625
1)
1;
1>
#862500
0(
1'
0:
19
1E
0=
1A
0F
#864000
0)
0;
0>
0A
#867375
1)
1;
1>
1A
#868750
1(
1:
1=
0A
#870750
0)
0;
0>
#874125
1)
1;
1>
#875000
0(
0'
1&
0:
09
18
1D
0E
0=
1A
#877500
0)
0;
0>
0A
#880875
1)
1;
1>
1A
#881250
1(
1:
1=
0A
#884250
0)
0;
0>
#887500
0(
1'
0:
19
1E
0=
#887625
1)
1;
1>
1A
#891000
0)
0;
0>
0A
#893750
1(
1:
1=
#894375
1)
1;
1>
#897750
0)
0;
0>
#900000
0(
0'
0&
0%
1$
0:
09
08
07
16
1?
0@
0D
0E
0=
1F
#901125
1)
1;
1>
#904500
0)
0;
0>
#906250
1(
1:
1=
1A
1G
1<
13
1!
#907875
1)
1;
1>
0A
0G
0<
03
0!
#911250
0)
0;
0>
1A
1G
1<
13
1!
#912500
0(
1'
0:
19
1E
0=
0A
0F
0G
0<
03
0!
#914625
1)
1;
1>
#918000
0)
0;
0>
#918750
1(
1:
1=
1A
#921375
1)
1;
1>
0A
#924750
0)
0;
0>
1A
#925000
0(
0'
1&
0:
09
18
1D
0E
0=
0A
#928125
1)
1;
1>
#931250
1(
1:
1=
#931500
0)
0;
0>
1A
#934875
1)
1;
1>
0A
#937500
0(
1'
0:
19
1E
0=
#938250
0)
0;
0>
#941625
1)
1;
1>
#943750
1(
1:
1=
#945000
0)
0;
0>
1A
#948375
1)
1;
1>
0A
#950000
0(
0'
0&
1%
0:
09
08
17
1@
0D
0E
0=
1F
#951750
0)
0;
0>
#955125
1)
1;
1>
#956250
1(
1:
1=
1A
1G
1<
13
1!
#958500
0)
0;
0>
0A
0G
0<
03
0!
#961875
1)
1;
1>
1A
1G
1<
13
1!
#962500
0(
1'
0:
19
1E
0=
0A
0F
0G
0<
03
0!
#965250
0)
0;
0>
#968625
1)
1;
1>
#968750
1(
1:
1=
1A
#972000
0)
0;
0>
0A
#975000
0(
0'
1&
0:
09
18
1D
0E
0=
#975375
1)
1;
1>
#978750
0)
0;
0>
#981250
1(
1:
1=
#982125
1)
1;
1>
1A
#985500
0)
0;
0>
0A
#987500
0(
1'
0:
19
1E
0=
#988875
1)
1;
1>
#992250
0)
0;
0>
#993750
1(
1:
1=
#995625
1)
1;
1>
1A
#999000
0)
0;
0>
0A
