1ano/2semestre/lsd/pratica04/CounterDemo/simulation/qsim/CounterDemo.msim.vcd
$comment
	File created using the following command:
		vcd file CounterDemo.msim.vcd -direction
$end
$date
	Thu Mar 16 16:48:06 2023
$end
$version
	ModelSim Version 2020.1
$end
$timescale
	1ps
$end

$scope module counterdown4_vhd_vec_tst $end
$var wire 1 ! clk $end
$var wire 1 " count [3] $end
$var wire 1 # count [2] $end
$var wire 1 $ count [1] $end
$var wire 1 % count [0] $end

$scope module i1 $end
$var wire 1 & gnd $end
$var wire 1 ' vcc $end
$var wire 1 ( unknown $end
$var wire 1 ) devoe $end
$var wire 1 * devclrn $end
$var wire 1 + devpor $end
$var wire 1 , ww_devoe $end
$var wire 1 - ww_devclrn $end
$var wire 1 . ww_devpor $end
$var wire 1 / ww_clk $end
$var wire 1 0 ww_count [3] $end
$var wire 1 1 ww_count [2] $end
$var wire 1 2 ww_count [1] $end
$var wire 1 3 ww_count [0] $end
$var wire 1 4 \count[0]~output_o\ $end
$var wire 1 5 \count[1]~output_o\ $end
$var wire 1 6 \count[2]~output_o\ $end
$var wire 1 7 \count[3]~output_o\ $end
$var wire 1 8 \clk~input_o\ $end
$var wire 1 9 \s_count[0]~0_combout\ $end
$var wire 1 : \Add0~0_combout\ $end
$var wire 1 ; \Add0~1_combout\ $end
$var wire 1 < \Add0~2_combout\ $end
$var wire 1 = s_count [3] $end
$var wire 1 > s_count [2] $end
$var wire 1 ? s_count [1] $end
$var wire 1 @ s_count [0] $end
$upscope $end
$upscope $end
$enddefinitions $end
#0
$dumpvars
0!
0&
1'
x(
1)
1*
1+
1,
1-
1.
0/
04
05
06
07
08
19
1:
1;
1<
00
01
02
03
0=
0>
0?
0@
0"
0#
0$
0%
$end
#20000
1!
1/
18
1@
1?
1>
1=
09
17
16
15
14
10
11
12
13
1%
1$
1#
1"
#40000
0!
0/
08
#60000
1!
1/
18
0@
19
0:
04
03
0%
#80000
0!
0/
08
#100000
1!
1/
18
1@
0?
09
05
14
02
13
1%
0$
#120000
0!
0/
08
#140000
1!
1/
18
0@
19
1:
0;
04
03
0%
#160000
0!
0/
08
#180000
1!
1/
18
1@
1?
0>
09
06
15
14
01
12
13
1%
1$
0#
#200000
0!
0/
08
#220000
1!
1/
18
0@
19
0:
04
03
0%
#240000
0!
0/
08
#260000
1!
1/
18
1@
0?
09
05
14
02
13
1%
0$
#280000
0!
0/
08
#300000
1!
1/
18
0@
19
1:
1;
0<
04
03
0%
#320000
0!
0/
08
#340000
1!
1/
18
1@
1?
1>
0=
09
07
16
15
14
00
11
12
13
1%
1$
1#
0"
#360000
0!
0/
08
#380000
1!
1/
18
0@
19
0:
04
03
0%
#400000
0!
0/
08
#420000
1!
1/
18
1@
0?
09
05
14
02
13
1%
0$
#440000
0!
0/
08
#460000
1!
1/
18
0@
19
1:
0;
04
03
0%
#480000
0!
0/
08
#500000
1!
1/
18
1@
1?
0>
09
06
15
14
01
12
13
1%
1$
0#
#520000
0!
0/
08
#540000
1!
1/
18
0@
19
0:
04
03
0%
#560000
0!
0/
08
#580000
1!
1/
18
1@
0?
09
05
14
02
13
1%
0$
#600000
0!
0/
08
#620000
1!
1/
18
0@
19
1:
1;
1<
04
03
0%
#640000
0!
0/
08
#660000
1!
1/
18
1@
1?
1>
1=
09
17
16
15
14
10
11
12
13
1%
1$
1#
1"
#680000
0!
0/
08
#700000
1!
1/
18
0@
19
0:
04
03
0%
#720000
0!
0/
08
#740000
1!
1/
18
1@
0?
09
05
14
02
13
1%
0$
#760000
0!
0/
08
#780000
1!
1/
18
0@
19
1:
0;
04
03
0%
#800000
0!
0/
08
#820000
1!
1/
18
1@
1?
0>
09
06
15
14
01
12
13
1%
1$
0#
#840000
0!
0/
08
#860000
1!
1/
18
0@
19
0:
04
03
0%
#880000
0!
0/
08
#900000
1!
1/
18
1@
0?
09
05
14
02
13
1%
0$
#920000
0!
0/
08
#940000
1!
1/
18
0@
19
1:
1;
0<
04
03
0%
#960000
0!
0/
08
#980000
1!
1/
18
1@
1?
1>
0=
09
07
16
15
14
00
11
12
13
1%
1$
1#
0"
