1ano/isd/quartus-projects/Teste/simulation/qsim/Teste1.msim.vcd
$comment
	File created using the following command:
		vcd file Teste1.msim.vcd -direction
$end
$date
	Fri Dec  2 13:03:35 2022
$end
$version
	ModelSim Version 2020.1
$end
$timescale
	1ps
$end

$scope module teste3_vhd_vec_tst $end
$var wire 1 ! A $end
$var wire 1 " B $end
$var wire 1 # C $end
$var wire 1 $ D $end
$var wire 1 % F $end

$scope module i1 $end
$var wire 1 & gnd $end
$var wire 1 ' vcc $end
$var wire 1 ( unknown $end
$var wire 1 ) devoe $end
$var wire 1 * devclrn $end
$var wire 1 + devpor $end
$var wire 1 , ww_devoe $end
$var wire 1 - ww_devclrn $end
$var wire 1 . ww_devpor $end
$var wire 1 / ww_F $end
$var wire 1 0 ww_D $end
$var wire 1 1 ww_A $end
$var wire 1 2 ww_B $end
$var wire 1 3 ww_C $end
$var wire 1 4 \F~output_o\ $end
$var wire 1 5 \C~input_o\ $end
$var wire 1 6 \D~input_o\ $end
$var wire 1 7 \A~input_o\ $end
$var wire 1 8 \B~input_o\ $end
$var wire 1 9 \inst|inst3~0_combout\ $end
$var wire 1 : \inst|ALT_INV_inst3~0_combout\ $end
$upscope $end
$upscope $end
$enddefinitions $end
#0
$dumpvars
0!
0"
0#
0$
1%
0&
1'
x(
1)
1*
1+
1,
1-
1.
1/
00
01
02
03
14
05
06
07
08
09
1:
$end
#50000
1!
11
17
19
0:
04
0/
0%
#100000
0!
1"
01
12
18
07
09
1:
14
1/
1%
#150000
1!
11
17
#200000
0!
0"
1#
01
02
13
15
08
07
#250000
1!
11
17
19
0:
04
0/
0%
#300000
0!
1"
01
12
18
07
#350000
1!
11
17
#400000
0!
0"
0#
1$
01
02
03
10
16
05
08
07
#450000
1!
11
17
09
1:
14
1/
1%
#500000
0!
1"
01
12
18
07
#550000
1!
11
17
#600000
0!
0"
1#
01
02
13
15
08
07
19
0:
04
0/
0%
#650000
1!
11
17
09
1:
14
1/
1%
#700000
0!
1"
01
12
18
07
19
0:
04
0/
0%
#750000
1!
11
17
#800000
0!
0"
0#
0$
01
02
03
00
06
05
08
07
09
1:
14
1/
1%
#850000
1!
11
17
19
0:
04
0/
0%
#900000
0!
1"
01
12
18
07
09
1:
14
1/
1%
#950000
1!
11
17
