1ano/2semestre/lsd/pratica04/FlipFlopD_Demo/simulation/qsim/FlipFlopD_Demo.msim.vcd
$comment
	File created using the following command:
		vcd file FlipFlopD_Demo.msim.vcd -direction
$end
$date
	Wed Mar 15 10:57:36 2023
$end
$version
	ModelSim Version 2020.1
$end
$timescale
	1ps
$end

$scope module flipflopd_vhd_vec_tst $end
$var wire 1 ! clk $end
$var wire 1 " d $end
$var wire 1 # q $end
$var wire 1 $ rst $end
$var wire 1 % set $end

$scope module i1 $end
$var wire 1 & gnd $end
$var wire 1 ' vcc $end
$var wire 1 ( unknown $end
$var wire 1 ) devoe $end
$var wire 1 * devclrn $end
$var wire 1 + devpor $end
$var wire 1 , ww_devoe $end
$var wire 1 - ww_devclrn $end
$var wire 1 . ww_devpor $end
$var wire 1 / ww_clk $end
$var wire 1 0 ww_d $end
$var wire 1 1 ww_set $end
$var wire 1 2 ww_rst $end
$var wire 1 3 ww_q $end
$var wire 1 4 \q~output_o\ $end
$var wire 1 5 \clk~input_o\ $end
$var wire 1 6 \d~input_o\ $end
$var wire 1 7 \set~input_o\ $end
$var wire 1 8 \rst~input_o\ $end
$var wire 1 9 \q~0_combout\ $end
$var wire 1 : \q~reg0_q\ $end
$upscope $end
$upscope $end
$enddefinitions $end
#0
$dumpvars
0!
0"
0#
0$
0%
0&
1'
x(
1)
1*
1+
1,
1-
1.
0/
00
01
02
03
04
05
06
07
08
09
0:
$end
#5000
1"
10
16
19
#15000
0"
00
06
09
#20000
1"
1!
10
1/
15
16
19
#25000
0"
00
06
09
#35000
1"
10
16
19
#40000
0!
0/
05
#50000
1$
12
18
09
#55000
0"
00
06
#60000
1"
1!
10
1/
15
16
#70000
0"
00
06
#75000
1"
10
16
#80000
0"
0!
00
0/
05
06
#85000
1"
10
16
#90000
0"
00
06
#100000
1!
1/
15
#105000
1"
10
16
#115000
0"
00
06
#120000
1"
0!
0$
10
0/
02
08
05
16
19
#130000
0"
00
06
09
#140000
1!
1/
15
#150000
1"
10
16
19
#155000
0"
00
06
09
#160000
0!
0/
05
#170000
1"
10
16
19
#180000
1!
1/
15
1:
14
13
1#
#185000
0"
00
06
09
#195000
1"
10
16
19
#200000
0!
1%
0/
11
17
05
#205000
0"
00
06
#210000
1"
10
16
#215000
0"
00
06
#220000
1!
1/
15
#225000
1"
10
16
#230000
0"
00
06
#235000
1"
10
16
#240000
0!
0/
05
#250000
0"
00
06
#255000
1"
10
16
#260000
0"
1!
00
1/
15
06
#275000
1"
10
16
#280000
0!
0/
05
#290000
0"
0%
00
01
07
06
09
#300000
1!
1/
15
0:
04
03
0#
#310000
1"
10
16
19
#320000
0!
0/
05
#330000
0"
00
06
09
#340000
1!
1/
15
#360000
0!
1"
0/
10
16
05
19
#365000
0"
00
06
09
#375000
1"
10
16
19
#380000
1!
1/
15
1:
14
13
1#
#385000
0"
00
06
09
#390000
1"
10
16
19
#400000
0"
0!
00
0/
05
06
09
#405000
1"
10
16
19
#410000
0"
00
06
09
#420000
1"
1!
10
1/
15
16
19
0:
04
03
0#
#430000
1%
1$
11
12
18
17
09
#440000
0"
0!
00
0/
05
06
#445000
1"
10
16
#455000
0"
00
06
#460000
1"
1!
10
1/
15
16
#465000
0"
00
06
#475000
1"
10
16
#480000
0"
0!
00
0/
05
06
#485000
1"
10
16
#490000
0"
00
06
#495000
1"
10
16
#500000
1!
1/
15
#510000
0"
00
06
#515000
1"
10
16
#520000
0"
0!
00
0/
05
06
#525000
1"
10
16
#530000
0"
00
06
#535000
1"
10
16
#540000
0"
1!
00
1/
15
06
#550000
0%
0$
01
02
08
07
#555000
1"
10
16
19
#560000
0!
0/
05
#565000
0"
00
06
09
#570000
1"
10
16
19
#580000
0"
1!
00
1/
15
06
09
1:
14
13
1#
#585000
1"
10
16
19
#590000
0"
00
06
09
#595000
1"
10
16
19
#600000
0!
0/
05
#605000
0"
00
06
09
#610000
1"
10
16
19
#615000
0"
00
06
09
#620000
1"
1!
10
1/
15
16
19
0:
04
03
0#
#625000
0"
00
06
09
#640000
0!
0/
05
#645000
1"
10
16
19
#650000
0"
00
06
09
#660000
1"
1!
10
1/
15
16
19
#665000
0"
00
06
09
#670000
1"
10
16
19
#680000
0"
0!
00
0/
05
06
09
#690000
1"
10
16
19
#695000
0"
00
06
09
#700000
1!
1/
15
#705000
1"
10
16
19
#720000
0!
0/
05
#725000
0"
00
06
09
#730000
1"
10
16
19
#735000
0"
00
06
09
#740000
1"
1!
10
1/
15
16
19
#750000
0"
00
06
09
#760000
0!
0/
05
#775000
1"
10
16
19
#780000
1!
1/
15
1:
14
13
1#
#785000
0"
00
06
09
#790000
1"
10
16
19
#800000
0"
0!
00
0/
05
06
09
#815000
1"
10
16
19
#820000
0"
1!
00
1/
15
06
09
#840000
1"
0!
10
0/
05
16
19
#845000
0"
00
06
09
#860000
1!
1/
15
0:
04
03
0#
#865000
1"
10
16
19
#870000
0"
00
06
09
#880000
1"
0!
10
0/
05
16
19
#895000
0"
00
06
09
#900000
1"
1!
10
1/
15
16
19
#905000
0"
00
06
09
#910000
1"
10
16
19
#920000
0"
0!
00
0/
05
06
09
#940000
1"
1!
10
1/
15
16
19
#955000
0"
00
06
09
#960000
1"
0!
10
0/
05
16
19
#965000
0"
00
06
09
#975000
1"
10
16
19
#980000
1!
1/
15
1:
14
13
1#
#995000
0"
00
06
09
