1ano/isd/quartus-projects/DecoderDemo/simulation/qsim/DecoderDemo.msim.vcd
$comment
	File created using the following command:
		vcd file DecoderDemo.msim.vcd -direction
$end
$date
	Mon Nov 14 21:42:31 2022
$end
$version
	ModelSim Version 2020.1
$end
$timescale
	1ps
$end

$scope module dec2_4_vhd_vec_tst $end
$var wire 1 ! E0L $end
$var wire 1 " E1 $end
$var wire 1 # X0 $end
$var wire 1 $ X1 $end
$var wire 1 % Y0 $end
$var wire 1 & Y1 $end
$var wire 1 ' Y2 $end
$var wire 1 ( Y3 $end

$scope module i1 $end
$var wire 1 ) gnd $end
$var wire 1 * vcc $end
$var wire 1 + unknown $end
$var wire 1 , devoe $end
$var wire 1 - devclrn $end
$var wire 1 . devpor $end
$var wire 1 / ww_devoe $end
$var wire 1 0 ww_devclrn $end
$var wire 1 1 ww_devpor $end
$var wire 1 2 ww_Y3 $end
$var wire 1 3 ww_E0L $end
$var wire 1 4 ww_E1 $end
$var wire 1 5 ww_X1 $end
$var wire 1 6 ww_X0 $end
$var wire 1 7 ww_Y2 $end
$var wire 1 8 ww_Y1 $end
$var wire 1 9 ww_Y0 $end
$var wire 1 : \Y3~output_o\ $end
$var wire 1 ; \Y2~output_o\ $end
$var wire 1 < \Y1~output_o\ $end
$var wire 1 = \Y0~output_o\ $end
$var wire 1 > \E1~input_o\ $end
$var wire 1 ? \X1~input_o\ $end
$var wire 1 @ \X0~input_o\ $end
$var wire 1 A \E0L~input_o\ $end
$var wire 1 B \inst~combout\ $end
$var wire 1 C \inst1~combout\ $end
$var wire 1 D \inst3~combout\ $end
$var wire 1 E \inst2~combout\ $end
$upscope $end
$upscope $end
$enddefinitions $end
#0
$dumpvars
0!
0"
0#
0$
0%
0&
0'
0(
0)
1*
x+
1,
1-
1.
1/
10
11
02
03
04
05
06
07
08
09
0:
0;
0<
0=
0>
0?
0@
0A
0B
0C
0D
0E
$end
#12500
1!
13
1A
#25000
0!
1"
03
14
1>
0A
1B
1:
12
1(
#37500
1!
13
1A
0B
0:
02
0(
#50000
0!
0"
1#
03
04
16
1@
0>
0A
#62500
1!
13
1A
#75000
0!
1"
03
14
1>
0A
1C
1;
17
1'
#87500
1!
13
1A
0C
0;
07
0'
#100000
0!
0"
0#
1$
03
04
06
15
1?
0@
0>
0A
#112500
1!
13
1A
#125000
0!
1"
03
14
1>
0A
1E
1=
19
1%
#137500
1!
13
1A
0E
0=
09
0%
#150000
0!
0"
1#
03
04
16
1@
0>
0A
#162500
1!
13
1A
#175000
0!
1"
03
14
1>
0A
1D
1<
18
1&
#187500
1!
13
1A
0D
0<
08
0&
#200000
0!
0"
0#
0$
03
04
06
05
0?
0@
0>
0A
#212500
1!
13
1A
#225000
0!
1"
03
14
1>
0A
1B
1:
12
1(
#237500
1!
13
1A
0B
0:
02
0(
#250000
0!
0"
1#
03
04
16
1@
0>
0A
#262500
1!
13
1A
#275000
0!
1"
03
14
1>
0A
1C
1;
17
1'
#287500
1!
13
1A
0C
0;
07
0'
#300000
0!
0"
0#
1$
03
04
06
15
1?
0@
0>
0A
#312500
1!
13
1A
#325000
0!
1"
03
14
1>
0A
1E
1=
19
1%
#337500
1!
13
1A
0E
0=
09
0%
#350000
0!
0"
1#
03
04
16
1@
0>
0A
#362500
1!
13
1A
#375000
0!
1"
03
14
1>
0A
1D
1<
18
1&
#387500
1!
13
1A
0D
0<
08
0&
#400000
0!
0"
0#
0$
03
04
06
05
0?
0@
0>
0A
#412500
1!
13
1A
#425000
0!
1"
03
14
1>
0A
1B
1:
12
1(
#437500
1!
13
1A
0B
0:
02
0(
#450000
0!
0"
1#
03
04
16
1@
0>
0A
#462500
1!
13
1A
#475000
0!
1"
03
14
1>
0A
1C
1;
17
1'
#487500
1!
13
1A
0C
0;
07
0'
#500000
0!
0"
0#
1$
03
04
06
15
1?
0@
0>
0A
#512500
1!
13
1A
#525000
0!
1"
03
14
1>
0A
1E
1=
19
1%
#537500
1!
13
1A
0E
0=
09
0%
#550000
0!
0"
1#
03
04
16
1@
0>
0A
#562500
1!
13
1A
#575000
0!
1"
03
14
1>
0A
1D
1<
18
1&
#587500
1!
13
1A
0D
0<
08
0&
#600000
0!
0"
0#
0$
03
04
06
05
0?
0@
0>
0A
#612500
1!
13
1A
#625000
0!
1"
03
14
1>
0A
1B
1:
12
1(
#637500
1!
13
1A
0B
0:
02
0(
#650000
0!
0"
1#
03
04
16
1@
0>
0A
#662500
1!
13
1A
#675000
0!
1"
03
14
1>
0A
1C
1;
17
1'
#687500
1!
13
1A
0C
0;
07
0'
#700000
0!
0"
0#
1$
03
04
06
15
1?
0@
0>
0A
#712500
1!
13
1A
#725000
0!
1"
03
14
1>
0A
1E
1=
19
1%
#737500
1!
13
1A
0E
0=
09
0%
#750000
0!
0"
1#
03
04
16
1@
0>
0A
#762500
1!
13
1A
#775000
0!
1"
03
14
1>
0A
1D
1<
18
1&
#787500
1!
13
1A
0D
0<
08
0&
#800000
0!
0"
0#
0$
03
04
06
05
0?
0@
0>
0A
#812500
1!
13
1A
#825000
0!
1"
03
14
1>
0A
1B
1:
12
1(
#837500
1!
13
1A
0B
0:
02
0(
#850000
0!
0"
1#
03
04
16
1@
0>
0A
#862500
1!
13
1A
#875000
0!
1"
03
14
1>
0A
1C
1;
17
1'
#887500
1!
13
1A
0C
0;
07
0'
#900000
0!
0"
0#
1$
03
04
06
15
1?
0@
0>
0A
#912500
1!
13
1A
#925000
0!
1"
03
14
1>
0A
1E
1=
19
1%
#937500
1!
13
1A
0E
0=
09
0%
#950000
0!
0"
1#
03
04
16
1@
0>
0A
#962500
1!
13
1A
#975000
0!
1"
03
14
1>
0A
1D
1<
18
1&
#987500
1!
13
1A
0D
0<
08
0&
